…
```{r load-cw, eval=FALSE}
# Load the BRFSS crosswalk map for all years
cw <- load_crosswalk()

# Or, load the crosswalk strictly for 2018 and 2019
cw_subset <- load_crosswalk(years = c(2018, 2019))
```

If you want to know if a topic is covered in the crosswalk, use `brfss_search()`. You can search by regular expressions, and the function will scan concept labels, notes, and raw question text.

```{r search, eval=FALSE}
# Search for anything related to asthma
brfss_search(cw, "asthma")

#> # A tibble: 12 × 6
#>    survey  year raw_var_name question_text                matched_in concept_id 
#>    <chr>  <int> <chr>        <chr>                        <chr>      <chr>      
#>  1 BRFSS   2018 ASTHMA3      Ever been told you had asth… question   asthma_ever
#>  2 BRFSS   2018 ASTHNOW      Do you still have asthma?    question   asthma_curr
#>  3 BRFSS   2019 ASTHMA3      Ever been told you had asth… question   asthma_ever
#> # ℹ 9 more rows
```
…
